mysql://b2a713a8127abc:ebdc85e4@us-cdbr-iron-east-05.cleardb.net/heroku_a52c2a56fdd22e9?reconnect=true

user : b2a713a8127abc
pass : ebdc85e4
host : us-cdbr-iron-east-05.cleardb.net
heroku_db : heroku_a52c2a56fdd22e9


mysql --host=us-cdbr-iron-east-05.cleardb.net --user=b2a713a8127abc --password=ebdc85e4 --reconnect heroku_a52c2a56fdd22e9  '.\SQL_dump\eshop(2.5.18).sql'


user : b020c17f191d1e
pass : 4f904957
host : us-cdbr-iron-east-04.cleardb.net
heroku_db : heroku_814c5bfd6cbf28a

mysql://b020c17f191d1e:4f904957@us-cdbr-iron-east-04.cleardb.net/heroku_814c5bfd6cbf28a?reconnect=true






global pharma

user : b08e6f4771d96e
pass : fd4a447c
host : us-cdbr-iron-east-04.cleardb.net
heroku_db : heroku_6b45a789861b58a

mysql://b08e6f4771d96e:fd4a447c@us-cdbr-iron-east-04.cleardb.net/heroku_6b45a789861b58a?reconnect=true